wave.vcd
$date
	Sat Jun 07 21:49:29 2025
$end
$version
	Icarus Verilog
$end
$timescale
	1ps
$end
$scope module datapath_tb $end
$var wire 32 ! instruction [31:0] $end
$var wire 32 " PC_next [31:0] $end
$var wire 32 # PC [31:0] $end
$var reg 1 $ clk $end
$var reg 1 % reset $end
$scope module uut $end
$var wire 1 $ clk $end
$var wire 32 & mem_addr [31:0] $end
$var wire 1 % reset $end
$var wire 32 ' write_data [31:0] $end
$var wire 32 ( rs2_data [31:0] $end
$var wire 5 ) rs2 [4:0] $end
$var wire 32 * rs1_data [31:0] $end
$var wire 5 + rs1 [4:0] $end
$var wire 1 , reg_write $end
$var wire 32 - read_memdata [31:0] $end
$var wire 5 . rd [4:0] $end
$var wire 7 / opcode [6:0] $end
$var wire 1 0 mem_write $end
$var wire 1 1 mem_to_reg $end
$var wire 1 2 mem_read $end
$var wire 32 3 instruction [31:0] $end
$var wire 7 4 func7 [6:0] $end
$var wire 3 5 func3 [2:0] $end
$var wire 1 6 branch $end
$var wire 1 7 alu_zero $end
$var wire 1 8 alu_src $end
$var wire 4 9 alu_sel [3:0] $end
$var wire 32 : alu_result [31:0] $end
$var wire 32 ; PC_next [31:0] $end
$var wire 32 < PC [31:0] $end
$scope module alu_inst $end
$var wire 32 = B [31:0] $end
$var wire 4 > S [3:0] $end
$var wire 32 ? A [31:0] $end
$var reg 32 @ F [31:0] $end
$var reg 1 7 zeroflag $end
$upscope $end
$scope module cv_inst $end
$var wire 7 A opcode [6:0] $end
$var wire 7 B func7 [6:0] $end
$var wire 3 C func3 [2:0] $end
$var reg 4 D alu_sel [3:0] $end
$var reg 1 8 alu_src $end
$var reg 1 6 branch $end
$var reg 1 2 mem_read $end
$var reg 1 1 mem_to_reg $end
$var reg 1 0 mem_write $end
$var reg 1 , reg_write $end
$upscope $end
$scope module data_mem_inst $end
$var wire 32 E address [31:0] $end
$var wire 1 $ clk $end
$var wire 1 2 mem_read $end
$var wire 1 0 mem_write $end
$var wire 32 F write_data [31:0] $end
$var reg 32 G read_data [31:0] $end
$upscope $end
$scope module instr_decoder_inst $end
$var wire 5 H rs2 [4:0] $end
$var wire 5 I rs1 [4:0] $end
$var wire 5 J rd [4:0] $end
$var wire 7 K opcode [6:0] $end
$var wire 32 L instruction [31:0] $end
$var wire 7 M func7 [6:0] $end
$var wire 3 N func3 [2:0] $end
$upscope $end
$scope module instr_mem_inst $end
$var wire 32 O addr [31:0] $end
$var reg 32 P instruction [31:0] $end
$upscope $end
$scope module pc_inst $end
$var wire 32 Q PC_next [31:0] $end
$var wire 1 $ clk $end
$var wire 1 % reset $end
$var reg 32 R PC [31:0] $end
$upscope $end
$scope module reg_file_inst $end
$var wire 1 $ clk $end
$var wire 5 S rd [4:0] $end
$var wire 1 , reg_write $end
$var wire 1 % reset $end
$var wire 5 T rs1 [4:0] $end
$var wire 32 U rs1_data [31:0] $end
$var wire 5 V rs2 [4:0] $end
$var wire 32 W rs2_data [31:0] $end
$var wire 32 X write_data [31:0] $end
$var integer 32 Y i [31:0] $end
$upscope $end
$upscope $end
$upscope $end
$enddefinitions $end
#0
$dumpvars
b100000 Y
b101 X
b0 W
b101 V
b0 U
b0 T
b10 S
b0 R
b100 Q
b10100000000000100010011 P
b0 O
b0 N
b0 M
b10100000000000100010011 L
b10011 K
b10 J
b0 I
b101 H
bx G
b0 F
bz E
b0 D
b0 C
b0 B
b10011 A
b101 @
b0 ?
b0 >
b101 =
b0 <
b100 ;
b101 :
b0 9
18
07
06
b0 5
b0 4
b10100000000000100010011 3
02
01
00
b10011 /
b10 .
bx -
1,
b0 +
b0 *
b101 )
b0 (
b101 '
bz &
1%
0$
b0 #
b100 "
b10100000000000100010011 !
$end
#5000000000000
b0 -
b0 G
b100000 Y
1$
#10000000000000
0$
0%
#15000000000000
b1010 '
b1010 X
b1010 :
b1010 @
b1010 =
b11 .
b11 J
b11 S
b1010 )
b1010 H
b1010 V
b1000 "
b1000 ;
b1000 Q
b101000000000000110010011 !
b101000000000000110010011 3
b101000000000000110010011 L
b101000000000000110010011 P
b100 #
b100 <
b100 O
b100 R
1$
#20000000000000
0$
#25000000000000
b0 '
b0 X
17
b0 :
b0 @
10
08
0,
b0 =
b100 .
b100 J
b100 S
b10 5
b10 C
b10 N
b0 )
b0 H
b0 V
b100011 /
b100011 A
b100011 K
b1100 "
b1100 ;
b1100 Q
b10001000100011 !
b10001000100011 3
b10001000100011 L
b10001000100011 P
b1000 #
b1000 <
b1000 O
b1000 R
1$
#30000000000000
0$
#35000000000000
b101 '
b101 X
07
b101 :
b101 @
b101 =
b0 .
b0 J
b0 S
b101 (
b101 F
b101 W
b10 )
b10 H
b10 V
b10000 "
b10000 ;
b10000 Q
b1000000010000000100011 !
b1000000010000000100011 3
b1000000010000000100011 L
b1000000010000000100011 P
b1100 #
b1100 <
b1100 O
b1100 R
1$
#40000000000000
0$
#45000000000000
b1010 '
b1010 X
b1010 :
b1010 @
b1010 =
b1 .
b1 J
b1 S
b1010 (
b1010 F
b1010 W
b11 )
b11 H
b11 V
b10100 "
b10100 ;
b10100 Q
b1100000010000010100011 !
b1100000010000010100011 3
b1100000010000010100011 L
b1100000010000010100011 P
b10000 #
b10000 <
b10000 O
b10000 R
1$
#50000000000000
0$
#55000000000000
17
b0 :
b0 @
b0 '
b0 X
b0 =
11
12
1,
00
b10 .
b10 J
b10 S
b0 (
b0 F
b0 W
b0 )
b0 H
b0 V
b11 /
b11 A
b11 K
b11000 "
b11000 ;
b11000 Q
b10000100000011 !
b10000100000011 3
b10000100000011 L
b10000100000011 P
b10100 #
b10100 <
b10100 O
b10100 R
1$
#60000000000000
0$
#65000000000000
b11 .
b11 J
b11 S
b100 )
b100 H
b100 V
b11100 "
b11100 ;
b11100 Q
b10000000010000110000011 !
b10000000010000110000011 3
b10000000010000110000011 L
b10000000010000110000011 P
b11000 #
b11000 <
b11000 O
b11000 R
1$
#70000000000000
0$
#75000000000000
01
02
1,
b101 .
b101 J
b101 S
b0 5
b0 C
b0 N
b11 )
b11 H
b11 V
b10 +
b10 I
b10 T
b110011 /
b110011 A
b110011 K
b100000 "
b100000 ;
b100000 Q
b1100010000001010110011 !
b1100010000001010110011 3
b1100010000001010110011 L
b1100010000001010110011 P
b11100 #
b11100 <
b11100 O
b11100 R
1$
#80000000000000
0$
#85000000000000
b1 9
b1 >
b1 D
1,
b110 .
b110 J
b110 S
b100000 4
b100000 B
b100000 M
b11 +
b11 I
b11 T
b100100 "
b100100 ;
b100100 Q
b1000000001100011000001100110011 !
b1000000001100011000001100110011 3
b1000000001100011000001100110011 L
b1000000001100011000001100110011 P
b100000 #
b100000 <
b100000 O
b100000 R
1$
#90000000000000
0$
#95000000000000
bx '
bx X
bx =
x7
bx :
bx @
b0 9
b0 >
b0 D
0,
bx .
bx J
bx S
bx 4
bx B
bx M
bx 5
bx C
bx N
bx (
bx F
bx W
bx )
bx H
bx V
bx *
bx ?
bx U
bx +
bx I
bx T
bx /
bx A
bx K
b101000 "
b101000 ;
b101000 Q
bx !
bx 3
bx L
bx P
b100100 #
b100100 <
b100100 O
b100100 R
1$
#100000000000000
0$
#105000000000000
b101100 "
b101100 ;
b101100 Q
b101000 #
b101000 <
b101000 O
b101000 R
1$
#110000000000000
0$
#115000000000000
b110000 "
b110000 ;
b110000 Q
b101100 #
b101100 <
b101100 O
b101100 R
1$
#120000000000000
0$
#125000000000000
b110100 "
b110100 ;
b110100 Q
b110000 #
b110000 <
b110000 O
b110000 R
1$
#130000000000000
0$
#135000000000000
b111000 "
b111000 ;
b111000 Q
b110100 #
b110100 <
b110100 O
b110100 R
1$
#140000000000000
0$
#145000000000000
b111100 "
b111100 ;
b111100 Q
b111000 #
b111000 <
b111000 O
b111000 R
1$
#150000000000000
0$
#155000000000000
b1000000 "
b1000000 ;
b1000000 Q
b111100 #
b111100 <
b111100 O
b111100 R
1$
#160000000000000
0$
#165000000000000
b1000100 "
b1000100 ;
b1000100 Q
b1000000 #
b1000000 <
b1000000 O
b1000000 R
1$
#170000000000000
0$
#175000000000000
b1001000 "
b1001000 ;
b1001000 Q
b1000100 #
b1000100 <
b1000100 O
b1000100 R
1$
#180000000000000
0$
#185000000000000
b1001100 "
b1001100 ;
b1001100 Q
b1001000 #
b1001000 <
b1001000 O
b1001000 R
1$
#190000000000000
0$
#195000000000000
b1010000 "
b1010000 ;
b1010000 Q
b1001100 #
b1001100 <
b1001100 O
b1001100 R
1$
#200000000000000
0$
#205000000000000
b1010100 "
b1010100 ;
b1010100 Q
b1010000 #
b1010000 <
b1010000 O
b1010000 R
1$
#210000000000000
0$
#215000000000000
b1011000 "
b1011000 ;
b1011000 Q
b1010100 #
b1010100 <
b1010100 O
b1010100 R
1$
#220000000000000
0$
#225000000000000
b1011100 "
b1011100 ;
b1011100 Q
b1011000 #
b1011000 <
b1011000 O
b1011000 R
1$
#230000000000000
0$
#235000000000000
b1100000 "
b1100000 ;
b1100000 Q
b1011100 #
b1011100 <
b1011100 O
b1011100 R
1$
#240000000000000
0$
#245000000000000
b1100100 "
b1100100 ;
b1100100 Q
b1100000 #
b1100000 <
b1100000 O
b1100000 R
1$
#250000000000000
0$
#255000000000000
b1101000 "
b1101000 ;
b1101000 Q
b1100100 #
b1100100 <
b1100100 O
b1100100 R
1$
#260000000000000
0$
#265000000000000
b1101100 "
b1101100 ;
b1101100 Q
b1101000 #
b1101000 <
b1101000 O
b1101000 R
1$
#270000000000000
0$
#275000000000000
b1110000 "
b1110000 ;
b1110000 Q
b1101100 #
b1101100 <
b1101100 O
b1101100 R
1$
#280000000000000
0$
#285000000000000
b1110100 "
b1110100 ;
b1110100 Q
b1110000 #
b1110000 <
b1110000 O
b1110000 R
1$
#290000000000000
0$
#295000000000000
b1111000 "
b1111000 ;
b1111000 Q
b1110100 #
b1110100 <
b1110100 O
b1110100 R
1$
#300000000000000
0$
#305000000000000
b1111100 "
b1111100 ;
b1111100 Q
b1111000 #
b1111000 <
b1111000 O
b1111000 R
1$
#310000000000000
0$
#315000000000000
b10000000 "
b10000000 ;
b10000000 Q
b1111100 #
b1111100 <
b1111100 O
b1111100 R
1$
#320000000000000
0$
#325000000000000
b10000100 "
b10000100 ;
b10000100 Q
b10000000 #
b10000000 <
b10000000 O
b10000000 R
1$
#330000000000000
0$
#335000000000000
b10001000 "
b10001000 ;
b10001000 Q
b10000100 #
b10000100 <
b10000100 O
b10000100 R
1$
#340000000000000
0$
#345000000000000
b10001100 "
b10001100 ;
b10001100 Q
b10001000 #
b10001000 <
b10001000 O
b10001000 R
1$
#350000000000000
0$
#355000000000000
b10010000 "
b10010000 ;
b10010000 Q
b10001100 #
b10001100 <
b10001100 O
b10001100 R
1$
#360000000000000
0$
#365000000000000
b10010100 "
b10010100 ;
b10010100 Q
b10010000 #
b10010000 <
b10010000 O
b10010000 R
1$
#370000000000000
0$
#375000000000000
b10011000 "
b10011000 ;
b10011000 Q
b10010100 #
b10010100 <
b10010100 O
b10010100 R
1$
#380000000000000
0$
#385000000000000
b10011100 "
b10011100 ;
b10011100 Q
b10011000 #
b10011000 <
b10011000 O
b10011000 R
1$
#390000000000000
0$
#395000000000000
b10100000 "
b10100000 ;
b10100000 Q
b10011100 #
b10011100 <
b10011100 O
b10011100 R
1$
#400000000000000
0$
#405000000000000
b10100100 "
b10100100 ;
b10100100 Q
b10100000 #
b10100000 <
b10100000 O
b10100000 R
1$
#410000000000000
0$
#415000000000000
b10101000 "
b10101000 ;
b10101000 Q
b10100100 #
b10100100 <
b10100100 O
b10100100 R
1$
#420000000000000
0$
#425000000000000
b10101100 "
b10101100 ;
b10101100 Q
b10101000 #
b10101000 <
b10101000 O
b10101000 R
1$
#430000000000000
0$
#435000000000000
b10110000 "
b10110000 ;
b10110000 Q
b10101100 #
b10101100 <
b10101100 O
b10101100 R
1$
#440000000000000
0$
#445000000000000
b10110100 "
b10110100 ;
b10110100 Q
b10110000 #
b10110000 <
b10110000 O
b10110000 R
1$
#450000000000000
0$
#455000000000000
b10111000 "
b10111000 ;
b10111000 Q
b10110100 #
b10110100 <
b10110100 O
b10110100 R
1$
#460000000000000
0$
#465000000000000
b10111100 "
b10111100 ;
b10111100 Q
b10111000 #
b10111000 <
b10111000 O
b10111000 R
1$
#470000000000000
0$
#475000000000000
b11000000 "
b11000000 ;
b11000000 Q
b10111100 #
b10111100 <
b10111100 O
b10111100 R
1$
#480000000000000
0$
#485000000000000
b11000100 "
b11000100 ;
b11000100 Q
b11000000 #
b11000000 <
b11000000 O
b11000000 R
1$
#490000000000000
0$
#495000000000000
b11001000 "
b11001000 ;
b11001000 Q
b11000100 #
b11000100 <
b11000100 O
b11000100 R
1$
#500000000000000
0$
#505000000000000
b11001100 "
b11001100 ;
b11001100 Q
b11001000 #
b11001000 <
b11001000 O
b11001000 R
1$
