P/riscv_pipeline.vcd
$date
	Sun Oct 19 14:07:23 2025
$end
$version
	Icarus Verilog
$end
$timescale
	1s
$end
$scope module tb $end
$var reg 1 ! clk $end
$var reg 1 " reset $end
$scope module uut $end
$var wire 1 ! clk $end
$var wire 1 " reset $end
$var wire 1 # zerof $end
$var wire 32 $ writeback [31:0] $end
$var wire 32 % write_data_r [31:0] $end
$var wire 32 & rs2data [31:0] $end
$var wire 32 ' rs2_data_n [31:0] $end
$var wire 32 ( rs2_data [31:0] $end
$var wire 5 ) rs2 [4:0] $end
$var wire 5 * rs1 [4:0] $end
$var wire 1 + reg_write $end
$var wire 32 , read_data_n [31:0] $end
$var wire 32 - read_data [31:0] $end
$var wire 5 . rd [4:0] $end
$var wire 7 / opcode [6:0] $end
$var wire 1 0 mem_write_n2 $end
$var wire 1 1 mem_write_n $end
$var wire 1 2 mem_write $end
$var wire 1 3 mem_to_reg_n3 $end
$var wire 1 4 mem_to_reg_n2 $end
$var wire 1 5 mem_to_reg_n $end
$var wire 1 6 mem_to_reg $end
$var wire 1 7 mem_read_n2 $end
$var wire 1 8 mem_read_n $end
$var wire 1 9 mem_read $end
$var wire 1 : jumpl_n $end
$var wire 1 ; jumpl $end
$var wire 32 < instruction [31:0] $end
$var wire 32 = instr_n [31:0] $end
$var wire 32 > instr [31:0] $end
$var wire 7 ? funct7 [6:0] $end
$var wire 3 @ funct3 [2:0] $end
$var wire 1 A branch_n $end
$var wire 1 B branch $end
$var wire 1 C alu_src $end
$var wire 4 D alu_select [3:0] $end
$var wire 4 E alu_sel [3:0] $end
$var wire 32 F alu_result_n [31:0] $end
$var wire 32 G alu_out_n [31:0] $end
$var wire 1 H alu_op $end
$var wire 32 I PC_next [31:0] $end
$var wire 32 J PC_new [31:0] $end
$var wire 32 K PC_n2 [31:0] $end
$var wire 32 L PC_n [31:0] $end
$var wire 32 M PC [31:0] $end
$var wire 32 N B_in [31:0] $end
$var wire 32 O B [31:0] $end
$var wire 32 P Alu_out [31:0] $end
$var wire 32 Q A_in [31:0] $end
$var wire 32 R A [31:0] $end
$scope module EM $end
$var wire 1 ! clk $end
$var wire 1 " reset $end
$var wire 32 S rs2_data [31:0] $end
$var wire 1 1 mem_write $end
$var wire 1 5 mem_to_reg $end
$var wire 1 8 mem_read $end
$var wire 32 T alu_out [31:0] $end
$var reg 32 U alu_out_n [31:0] $end
$var reg 1 7 mem_read_n2 $end
$var reg 1 4 mem_to_reg_n2 $end
$var reg 1 0 mem_write_n2 $end
$var reg 32 V rs2_data_n [31:0] $end
$upscope $end
$scope module ID $end
$var wire 1 ! clk $end
$var wire 1 " reset $end
$var wire 4 W sel [3:0] $end
$var wire 32 X rs2_data [31:0] $end
$var wire 1 2 mem_write_en $end
$var wire 1 6 mem_to_reg_en $end
$var wire 1 9 mem_read_en $end
$var wire 1 ; jumpl_en $end
$var wire 32 Y instr [31:0] $end
$var wire 1 B branch $end
$var wire 32 Z PC_n [31:0] $end
$var wire 32 [ B_in [31:0] $end
$var wire 32 \ A_in [31:0] $end
$var reg 32 ] A [31:0] $end
$var reg 32 ^ B [31:0] $end
$var reg 32 _ PC_n2 [31:0] $end
$var reg 4 ` alu_select [3:0] $end
$var reg 1 A branch_n $end
$var reg 32 a instr_n [31:0] $end
$var reg 1 : jumpl_n $end
$var reg 1 8 mem_read_n $end
$var reg 1 5 mem_to_reg_n $end
$var reg 1 1 mem_write_n $end
$var reg 32 b rs2data [31:0] $end
$upscope $end
$scope module IF $end
$var wire 1 ! clk $end
$var wire 1 " reset $end
$var wire 32 c instruction [31:0] $end
$var wire 32 d PC_new [31:0] $end
$var reg 32 e PC_n [31:0] $end
$var reg 32 f instr [31:0] $end
$upscope $end
$scope module MW $end
$var wire 32 g alu_result [31:0] $end
$var wire 1 ! clk $end
$var wire 1 4 mem_to_reg_n2 $end
$var wire 1 " reset $end
$var wire 32 h read_data [31:0] $end
$var reg 32 i alu_result_n [31:0] $end
$var reg 1 3 mem_to_reg_n3 $end
$var reg 32 j read_data_n [31:0] $end
$upscope $end
$scope module PC_add $end
$var wire 32 k PC_new [31:0] $end
$var wire 32 l PC [31:0] $end
$upscope $end
$scope module WB $end
$var wire 32 m PC_new [31:0] $end
$var wire 1 : jumpl_en $end
$var wire 32 n write_back [31:0] $end
$var wire 32 o alu_result [31:0] $end
$upscope $end
$scope module a_c $end
$var wire 7 p func7 [6:0] $end
$var wire 3 q func3 [2:0] $end
$var wire 1 H alu_op $end
$var reg 4 r sel [3:0] $end
$upscope $end
$scope module alu $end
$var wire 32 s A [31:0] $end
$var wire 32 t B [31:0] $end
$var wire 4 u sel [3:0] $end
$var reg 32 v out [31:0] $end
$var reg 1 # zeroflag $end
$upscope $end
$scope module controller $end
$var wire 1 " reset $end
$var wire 7 w opcode [6:0] $end
$var reg 1 H alu_op $end
$var reg 1 C alu_src $end
$var reg 1 B branch_en $end
$var reg 1 ; jumpl_en $end
$var reg 1 9 mem_read_en $end
$var reg 1 6 mem_to_reg_en $end
$var reg 1 2 mem_write_en $end
$var reg 1 + reg_write_en $end
$upscope $end
$scope module decode $end
$var wire 32 x instruction [31:0] $end
$var wire 5 y rs2 [4:0] $end
$var wire 5 z rs1 [4:0] $end
$var wire 5 { rd [4:0] $end
$var wire 7 | opcode [6:0] $end
$var wire 7 } func7 [6:0] $end
$var wire 3 ~ func3 [2:0] $end
$upscope $end
$scope module i_m $end
$var wire 32 !" address [31:0] $end
$var reg 32 "" instruction [31:0] $end
$upscope $end
$scope module imm_values $end
$var wire 1 C alu_src $end
$var wire 32 #" instruction [31:0] $end
$var wire 1 2 mem_write_en $end
$var wire 32 $" rs2_data [31:0] $end
$var reg 32 %" B [31:0] $end
$upscope $end
$scope module m1 $end
$var wire 32 &" alu_res [31:0] $end
$var wire 1 3 mem_to_reg_en $end
$var wire 32 '" read_data [31:0] $end
$var reg 32 (" write_data [31:0] $end
$upscope $end
$scope module mem $end
$var wire 32 )" address [31:0] $end
$var wire 1 ! clk $end
$var wire 1 7 mem_read_en $end
$var wire 1 0 mem_write_en $end
$var wire 1 " reset $end
$var wire 32 *" write_data [31:0] $end
$var reg 32 +" read_data [31:0] $end
$upscope $end
$scope module pc $end
$var wire 32 ," PC_new [31:0] $end
$var wire 1 A branch_en $end
$var wire 32 -" instruction [31:0] $end
$var wire 1 : jumpl_en $end
$var wire 1 # zeroflag $end
$var wire 32 ." PC [31:0] $end
$var reg 32 /" PC_next [31:0] $end
$upscope $end
$scope module program_counter $end
$var wire 32 0" PC_next [31:0] $end
$var wire 1 ! clk $end
$var wire 1 " reset $end
$var reg 32 1" PC [31:0] $end
$upscope $end
$scope module registers $end
$var wire 5 2" rd [4:0] $end
$var wire 1 + reg_write_en $end
$var wire 1 " reset $end
$var wire 5 3" rs1 [4:0] $end
$var wire 32 4" rs1_data [31:0] $end
$var wire 5 5" rs2 [4:0] $end
$var wire 32 6" rs2_data [31:0] $end
$var wire 32 7" write_data [31:0] $end
$var integer 32 8" i [31:0] $end
$upscope $end
$upscope $end
$upscope $end
$enddefinitions $end
#0
$dumpvars
b100000 8"
bx 7"
bx 6"
bx 5"
bx 4"
bx 3"
bx 2"
bx 1"
bx 0"
bx /"
bx ."
b0 -"
bx ,"
b0 +"
bx *"
bx )"
bx ("
bx '"
bx &"
bx %"
bx $"
bx #"
b0 ""
bx !"
bx ~
bx }
bx |
bx {
bx z
bx y
bx x
bx w
bx v
bx u
bx t
bx s
b0 r
bx q
bx p
bx o
bx n
bx m
bx l
bx k
bx j
bx i
b0 h
bx g
bx f
bx e
bx d
b0 c
bx b
bx a
bx `
bx _
bx ^
bx ]
bx \
bx [
bx Z
bx Y
bx X
b0 W
bx V
bx U
bx T
bx S
bx R
bx Q
bx P
bx O
bx N
bx M
bx L
bx K
bx J
bx I
0H
bx G
bx F
b0 E
bx D
0C
0B
xA
bx @
bx ?
bx >
bx =
b0 <
0;
x:
09
x8
x7
06
x5
x4
x3
02
x1
x0
bx /
bx .
b0 -
bx ,
0+
bx *
bx )
bx (
bx '
bx &
bx %
bx $
x#
1"
0!
$end
#10
b0 N
b0 [
b0 %"
b0 $
b0 n
b100000 8"
b10100000000000100010011 <
b10100000000000100010011 c
b10100000000000100010011 ""
b10100000000000100010011 -"
b0 ?
b0 p
b0 }
b0 (
b0 X
b0 $"
b0 6"
b0 )
b0 y
b0 5"
b0 Q
b0 \
b0 4"
b0 *
b0 z
b0 3"
b0 @
b0 q
b0 ~
b0 .
b0 {
b0 2"
b0 /
b0 w
b0 |
1#
b0 P
b0 T
b0 o
b0 v
b100 I
b100 /"
b100 0"
b0 %
b0 ("
b0 7"
b100 J
b100 d
b100 k
b100 ,"
b0 M
b0 l
b0 !"
b0 ."
b0 1"
b0 L
b0 Z
b0 e
b0 >
b0 Y
b0 f
b0 x
b0 #"
b0 =
b0 a
b0 K
b0 _
b0 m
b0 D
b0 `
b0 u
b0 O
b0 ^
b0 t
b0 R
b0 ]
b0 s
0A
0:
05
01
08
b0 '
b0 V
b0 *"
b0 G
b0 U
b0 g
b0 )"
00
07
04
b0 F
b0 i
b0 &"
b0 ,
b0 j
b0 '"
03
1!
#20
0!
0"
#30
b101 N
b101 [
b101 %"
1H
1C
1+
b101 )
b101 y
b101 5"
b10 .
b10 {
b10 2"
b10011 /
b10011 w
b10011 |
b101000000000000110010011 <
b101000000000000110010011 c
b101000000000000110010011 ""
b101000000000000110010011 -"
b1000 I
b1000 /"
b1000 0"
bx '
bx V
bx *"
b0 &
b0 S
b0 b
b100 L
b100 Z
b100 e
b10100000000000100010011 >
b10100000000000100010011 Y
b10100000000000100010011 f
b10100000000000100010011 x
b10100000000000100010011 #"
b1000 J
b1000 d
b1000 k
b1000 ,"
b100 M
b100 l
b100 !"
b100 ."
b100 1"
1!
#40
0!
#50
b101 $
b101 n
b10001000100011 <
b10001000100011 c
b10001000100011 ""
b10001000100011 -"
b1100 I
b1100 /"
b1100 0"
b1010 )
b1010 y
b1010 5"
b11 .
b11 {
b11 2"
b1010 N
b1010 [
b1010 %"
0#
b101 P
b101 T
b101 o
b101 v
b1100 J
b1100 d
b1100 k
b1100 ,"
b1000 M
b1000 l
b1000 !"
b1000 ."
b1000 1"
b1000 L
b1000 Z
b1000 e
b101000000000000110010011 >
b101000000000000110010011 Y
b101000000000000110010011 f
b101000000000000110010011 x
b101000000000000110010011 #"
b10100000000000100010011 =
b10100000000000100010011 a
b100 K
b100 _
b100 m
b101 O
b101 ^
b101 t
b0 '
b0 V
b0 *"
1!
#60
0!
#70
b1010 $
b1010 n
19
16
12
0H
b1010 P
b1010 T
b1010 o
b1010 v
b0 )
b0 y
b0 5"
b10 @
b10 q
b10 ~
b100 .
b100 {
b100 2"
b100011 /
b100011 w
b100011 |
b0 N
b0 [
b0 %"
b1000000010000000100011 <
b1000000010000000100011 c
b1000000010000000100011 ""
b1000000010000000100011 -"
b10000 I
b10000 /"
b10000 0"
b101 G
b101 U
b101 g
b101 )"
b101000000000000110010011 =
b101000000000000110010011 a
b1000 K
b1000 _
b1000 m
b1010 O
b1010 ^
b1010 t
b1100 L
b1100 Z
b1100 e
b10001000100011 >
b10001000100011 Y
b10001000100011 f
b10001000100011 x
b10001000100011 #"
b10000 J
b10000 d
b10000 k
b10000 ,"
b1100 M
b1100 l
b1100 !"
b1100 ."
b1100 1"
1!
#80
0!
#90
b0 $
b0 n
b1100000010000010100011 <
b1100000010000010100011 c
b1100000010000010100011 ""
b1100000010000010100011 -"
b10100 I
b10100 /"
b10100 0"
b10 )
b10 y
b10 5"
b0 .
b0 {
b0 2"
1#
b0 P
b0 T
b0 o
b0 v
b101 %
b101 ("
b101 7"
b10100 J
b10100 d
b10100 k
b10100 ,"
b10000 M
b10000 l
b10000 !"
b10000 ."
b10000 1"
b10000 L
b10000 Z
b10000 e
b1000000010000000100011 >
b1000000010000000100011 Y
b1000000010000000100011 f
b1000000010000000100011 x
b1000000010000000100011 #"
b10001000100011 =
b10001000100011 a
b1100 K
b1100 _
b1100 m
b0 O
b0 ^
b0 t
15
11
18
b1010 G
b1010 U
b1010 g
b1010 )"
b101 F
b101 i
b101 &"
1!
#100
0!
#110
b0 -
b0 h
b0 +"
b1010 %
b1010 ("
b1010 7"
b11 )
b11 y
b11 5"
b1 .
b1 {
b1 2"
b10000100000011 <
b10000100000011 c
b10000100000011 ""
b10000100000011 -"
b11000 I
b11000 /"
b11000 0"
b1010 F
b1010 i
b1010 &"
b0 G
b0 U
b0 g
b0 )"
10
17
14
b1000000010000000100011 =
b1000000010000000100011 a
b10000 K
b10000 _
b10000 m
b10100 L
b10100 Z
b10100 e
b1100000010000010100011 >
b1100000010000010100011 Y
b1100000010000010100011 f
b1100000010000010100011 x
b1100000010000010100011 #"
b11000 J
b11000 d
b11000 k
b11000 ,"
b10100 M
b10100 l
b10100 !"
b10100 ."
b10100 1"
1!
#120
0!
#130
02
b10000000010000110000011 <
b10000000010000110000011 c
b10000000010000110000011 ""
b10000000010000110000011 -"
b11100 I
b11100 /"
b11100 0"
b0 )
b0 y
b0 5"
b10 .
b10 {
b10 2"
b11 /
b11 w
b11 |
b0 %
b0 ("
b0 7"
b11100 J
b11100 d
b11100 k
b11100 ,"
b11000 M
b11000 l
b11000 !"
b11000 ."
b11000 1"
b11000 L
b11000 Z
b11000 e
b10000100000011 >
b10000100000011 Y
b10000100000011 f
b10000100000011 x
b10000100000011 #"
b1100000010000010100011 =
b1100000010000010100011 a
b10100 K
b10100 _
b10100 m
b0 F
b0 i
b0 &"
13
1!
#140
0!
#150
b100 )
b100 y
b100 5"
b11 .
b11 {
b11 2"
b100 N
b100 [
b100 %"
b1100010000001010110011 <
b1100010000001010110011 c
b1100010000001010110011 ""
b1100010000001010110011 -"
b100000 I
b100000 /"
b100000 0"
b10000100000011 =
b10000100000011 a
b11000 K
b11000 _
b11000 m
01
b11100 L
b11100 Z
b11100 e
b10000000010000110000011 >
b10000000010000110000011 Y
b10000000010000110000011 f
b10000000010000110000011 x
b10000000010000110000011 #"
b100000 J
b100000 d
b100000 k
b100000 ,"
b11100 M
b11100 l
b11100 !"
b11100 ."
b11100 1"
1!
#160
0!
#170
1H
06
09
0C
b100 $
b100 n
b1000000001100011000001100110011 <
b1000000001100011000001100110011 c
b1000000001100011000001100110011 ""
b1000000001100011000001100110011 -"
b100100 I
b100100 /"
b100100 0"
b11 )
b11 y
b11 5"
b10 *
b10 z
b10 3"
b0 @
b0 q
b0 ~
b101 .
b101 {
b101 2"
b110011 /
b110011 w
b110011 |
b0 N
b0 [
b0 %"
0#
b100 P
b100 T
b100 o
b100 v
b100100 J
b100100 d
b100100 k
b100100 ,"
b100000 M
b100000 l
b100000 !"
b100000 ."
b100000 1"
b100000 L
b100000 Z
b100000 e
b1100010000001010110011 >
b1100010000001010110011 Y
b1100010000001010110011 f
b1100010000001010110011 x
b1100010000001010110011 #"
b10000000010000110000011 =
b10000000010000110000011 a
b11100 K
b11100 _
b11100 m
b100 O
b100 ^
b100 t
00
1!
#180
0!
#190
bx -
bx h
bx +"
b0 $
b0 n
b1 E
b1 W
b1 r
1#
b0 P
b0 T
b0 o
b0 v
b100000 ?
b100000 p
b100000 }
b11 *
b11 z
b11 3"
b110 .
b110 {
b110 2"
bx <
bx c
bx ""
bx -"
b101000 I
b101000 /"
b101000 0"
b100 G
b100 U
b100 g
b100 )"
b1100010000001010110011 =
b1100010000001010110011 a
b100000 K
b100000 _
b100000 m
b0 O
b0 ^
b0 t
05
08
b100100 L
b100100 Z
b100100 e
b1000000001100011000001100110011 >
b1000000001100011000001100110011 Y
b1000000001100011000001100110011 f
b1000000001100011000001100110011 x
b1000000001100011000001100110011 #"
b101000 J
b101000 d
b101000 k
b101000 ,"
b100100 M
b100100 l
b100100 !"
b100100 ."
b100100 1"
1!
#200
0!
#210
bx N
bx [
bx %"
b0 E
b0 W
b0 r
b101100 I
b101100 /"
b101100 0"
bx ?
bx p
bx }
bx (
bx X
bx $"
bx 6"
bx )
bx y
bx 5"
bx Q
bx \
bx 4"
bx *
bx z
bx 3"
bx @
bx q
bx ~
bx .
bx {
bx 2"
bx /
bx w
bx |
bx %
bx ("
bx 7"
b101100 J
b101100 d
b101100 k
b101100 ,"
b101000 M
b101000 l
b101000 !"
b101000 ."
b101000 1"
b101000 L
b101000 Z
b101000 e
bx >
bx Y
bx f
bx x
bx #"
b1000000001100011000001100110011 =
b1000000001100011000001100110011 a
b100100 K
b100100 _
b100100 m
b1 D
b1 `
b1 u
b0 G
b0 U
b0 g
b0 )"
07
04
b100 F
b100 i
b100 &"
bx ,
bx j
bx '"
1!
#220
0!
#230
bx $
bx n
b0 %
b0 ("
b0 7"
x#
bx P
bx T
bx o
bx v
b110000 I
b110000 /"
b110000 0"
b0 F
b0 i
b0 &"
03
bx =
bx a
bx &
bx S
bx b
b101000 K
b101000 _
b101000 m
b0 D
b0 `
b0 u
bx O
bx ^
bx t
bx R
bx ]
bx s
b101100 L
b101100 Z
b101100 e
b110000 J
b110000 d
b110000 k
b110000 ,"
b101100 M
b101100 l
b101100 !"
b101100 ."
b101100 1"
1!
#240
0!
#250
b110100 I
b110100 /"
b110100 0"
b110100 J
b110100 d
b110100 k
b110100 ,"
b110000 M
b110000 l
b110000 !"
b110000 ."
b110000 1"
b110000 L
b110000 Z
b110000 e
b101100 K
b101100 _
b101100 m
bx '
bx V
bx *"
bx G
bx U
bx g
bx )"
1!
#260
0!
#270
bx %
bx ("
bx 7"
b111000 I
b111000 /"
b111000 0"
bx F
bx i
bx &"
b110000 K
b110000 _
b110000 m
b110100 L
b110100 Z
b110100 e
b111000 J
b111000 d
b111000 k
b111000 ,"
b110100 M
b110100 l
b110100 !"
b110100 ."
b110100 1"
1!
#280
0!
#290
b111100 I
b111100 /"
b111100 0"
b111100 J
b111100 d
b111100 k
b111100 ,"
b111000 M
b111000 l
b111000 !"
b111000 ."
b111000 1"
b111000 L
b111000 Z
b111000 e
b110100 K
b110100 _
b110100 m
1!
#300
0!
#310
b1000000 I
b1000000 /"
b1000000 0"
b111000 K
b111000 _
b111000 m
b111100 L
b111100 Z
b111100 e
b1000000 J
b1000000 d
b1000000 k
b1000000 ,"
b111100 M
b111100 l
b111100 !"
b111100 ."
b111100 1"
1!
#320
0!
#330
b1000100 I
b1000100 /"
b1000100 0"
b1000100 J
b1000100 d
b1000100 k
b1000100 ,"
b1000000 M
b1000000 l
b1000000 !"
b1000000 ."
b1000000 1"
b1000000 L
b1000000 Z
b1000000 e
b111100 K
b111100 _
b111100 m
1!
#340
0!
#350
b1001000 I
b1001000 /"
b1001000 0"
b1000000 K
b1000000 _
b1000000 m
b1000100 L
b1000100 Z
b1000100 e
b1001000 J
b1001000 d
b1001000 k
b1001000 ,"
b1000100 M
b1000100 l
b1000100 !"
b1000100 ."
b1000100 1"
1!
#360
0!
#370
b1001100 I
b1001100 /"
b1001100 0"
b1001100 J
b1001100 d
b1001100 k
b1001100 ,"
b1001000 M
b1001000 l
b1001000 !"
b1001000 ."
b1001000 1"
b1001000 L
b1001000 Z
b1001000 e
b1000100 K
b1000100 _
b1000100 m
1!
#380
0!
#390
b1010000 I
b1010000 /"
b1010000 0"
b1001000 K
b1001000 _
b1001000 m
b1001100 L
b1001100 Z
b1001100 e
b1010000 J
b1010000 d
b1010000 k
b1010000 ,"
b1001100 M
b1001100 l
b1001100 !"
b1001100 ."
b1001100 1"
1!
#400
0!
#410
b1010100 I
b1010100 /"
b1010100 0"
b1010100 J
b1010100 d
b1010100 k
b1010100 ,"
b1010000 M
b1010000 l
b1010000 !"
b1010000 ."
b1010000 1"
b1010000 L
b1010000 Z
b1010000 e
b1001100 K
b1001100 _
b1001100 m
1!
#420
0!
#430
b1011000 I
b1011000 /"
b1011000 0"
b1010000 K
b1010000 _
b1010000 m
b1010100 L
b1010100 Z
b1010100 e
b1011000 J
b1011000 d
b1011000 k
b1011000 ,"
b1010100 M
b1010100 l
b1010100 !"
b1010100 ."
b1010100 1"
1!
#440
0!
#450
b1011100 I
b1011100 /"
b1011100 0"
b1011100 J
b1011100 d
b1011100 k
b1011100 ,"
b1011000 M
b1011000 l
b1011000 !"
b1011000 ."
b1011000 1"
b1011000 L
b1011000 Z
b1011000 e
b1010100 K
b1010100 _
b1010100 m
1!
#460
0!
#470
b1100000 I
b1100000 /"
b1100000 0"
b1011000 K
b1011000 _
b1011000 m
b1011100 L
b1011100 Z
b1011100 e
b1100000 J
b1100000 d
b1100000 k
b1100000 ,"
b1011100 M
b1011100 l
b1011100 !"
b1011100 ."
b1011100 1"
1!
#480
0!
#490
b1100100 I
b1100100 /"
b1100100 0"
b1100100 J
b1100100 d
b1100100 k
b1100100 ,"
b1100000 M
b1100000 l
b1100000 !"
b1100000 ."
b1100000 1"
b1100000 L
b1100000 Z
b1100000 e
b1011100 K
b1011100 _
b1011100 m
1!
#500
0!
#510
b1101000 I
b1101000 /"
b1101000 0"
b1100000 K
b1100000 _
b1100000 m
b1100100 L
b1100100 Z
b1100100 e
b1101000 J
b1101000 d
b1101000 k
b1101000 ,"
b1100100 M
b1100100 l
b1100100 !"
b1100100 ."
b1100100 1"
1!
#520
0!
#530
b1101100 I
b1101100 /"
b1101100 0"
b1101100 J
b1101100 d
b1101100 k
b1101100 ,"
b1101000 M
b1101000 l
b1101000 !"
b1101000 ."
b1101000 1"
b1101000 L
b1101000 Z
b1101000 e
b1100100 K
b1100100 _
b1100100 m
1!
#540
0!
#550
b1110000 I
b1110000 /"
b1110000 0"
b1101000 K
b1101000 _
b1101000 m
b1101100 L
b1101100 Z
b1101100 e
b1110000 J
b1110000 d
b1110000 k
b1110000 ,"
b1101100 M
b1101100 l
b1101100 !"
b1101100 ."
b1101100 1"
1!
#560
0!
#570
b1110100 I
b1110100 /"
b1110100 0"
b1110100 J
b1110100 d
b1110100 k
b1110100 ,"
b1110000 M
b1110000 l
b1110000 !"
b1110000 ."
b1110000 1"
b1110000 L
b1110000 Z
b1110000 e
b1101100 K
b1101100 _
b1101100 m
1!
#580
0!
#590
b1111000 I
b1111000 /"
b1111000 0"
b1110000 K
b1110000 _
b1110000 m
b1110100 L
b1110100 Z
b1110100 e
b1111000 J
b1111000 d
b1111000 k
b1111000 ,"
b1110100 M
b1110100 l
b1110100 !"
b1110100 ."
b1110100 1"
1!
#600
0!
#610
b1111100 I
b1111100 /"
b1111100 0"
b1111100 J
b1111100 d
b1111100 k
b1111100 ,"
b1111000 M
b1111000 l
b1111000 !"
b1111000 ."
b1111000 1"
b1111000 L
b1111000 Z
b1111000 e
b1110100 K
b1110100 _
b1110100 m
1!
#620
0!
#630
b10000000 I
b10000000 /"
b10000000 0"
b1111000 K
b1111000 _
b1111000 m
b1111100 L
b1111100 Z
b1111100 e
b10000000 J
b10000000 d
b10000000 k
b10000000 ,"
b1111100 M
b1111100 l
b1111100 !"
b1111100 ."
b1111100 1"
1!
#640
0!
#650
b10000100 I
b10000100 /"
b10000100 0"
b10000100 J
b10000100 d
b10000100 k
b10000100 ,"
b10000000 M
b10000000 l
b10000000 !"
b10000000 ."
b10000000 1"
b10000000 L
b10000000 Z
b10000000 e
b1111100 K
b1111100 _
b1111100 m
1!
#660
0!
#670
b10001000 I
b10001000 /"
b10001000 0"
b10000000 K
b10000000 _
b10000000 m
b10000100 L
b10000100 Z
b10000100 e
b10001000 J
b10001000 d
b10001000 k
b10001000 ,"
b10000100 M
b10000100 l
b10000100 !"
b10000100 ."
b10000100 1"
1!
#680
0!
#690
b10001100 I
b10001100 /"
b10001100 0"
b10001100 J
b10001100 d
b10001100 k
b10001100 ,"
b10001000 M
b10001000 l
b10001000 !"
b10001000 ."
b10001000 1"
b10001000 L
b10001000 Z
b10001000 e
b10000100 K
b10000100 _
b10000100 m
1!
#700
0!
#710
b10010000 I
b10010000 /"
b10010000 0"
b10001000 K
b10001000 _
b10001000 m
b10001100 L
b10001100 Z
b10001100 e
b10010000 J
b10010000 d
b10010000 k
b10010000 ,"
b10001100 M
b10001100 l
b10001100 !"
b10001100 ."
b10001100 1"
1!
#720
0!
#730
b10010100 I
b10010100 /"
b10010100 0"
b10010100 J
b10010100 d
b10010100 k
b10010100 ,"
b10010000 M
b10010000 l
b10010000 !"
b10010000 ."
b10010000 1"
b10010000 L
b10010000 Z
b10010000 e
b10001100 K
b10001100 _
b10001100 m
1!
#740
0!
#750
b10011000 I
b10011000 /"
b10011000 0"
b10010000 K
b10010000 _
b10010000 m
b10010100 L
b10010100 Z
b10010100 e
b10011000 J
b10011000 d
b10011000 k
b10011000 ,"
b10010100 M
b10010100 l
b10010100 !"
b10010100 ."
b10010100 1"
1!
#760
0!
#770
b10011100 I
b10011100 /"
b10011100 0"
b10011100 J
b10011100 d
b10011100 k
b10011100 ,"
b10011000 M
b10011000 l
b10011000 !"
b10011000 ."
b10011000 1"
b10011000 L
b10011000 Z
b10011000 e
b10010100 K
b10010100 _
b10010100 m
1!
#780
0!
#790
b10100000 I
b10100000 /"
b10100000 0"
b10011000 K
b10011000 _
b10011000 m
b10011100 L
b10011100 Z
b10011100 e
b10100000 J
b10100000 d
b10100000 k
b10100000 ,"
b10011100 M
b10011100 l
b10011100 !"
b10011100 ."
b10011100 1"
1!
#800
0!
#810
b10100100 I
b10100100 /"
b10100100 0"
b10100100 J
b10100100 d
b10100100 k
b10100100 ,"
b10100000 M
b10100000 l
b10100000 !"
b10100000 ."
b10100000 1"
b10100000 L
b10100000 Z
b10100000 e
b10011100 K
b10011100 _
b10011100 m
1!
#820
0!
#830
b10101000 I
b10101000 /"
b10101000 0"
b10100000 K
b10100000 _
b10100000 m
b10100100 L
b10100100 Z
b10100100 e
b10101000 J
b10101000 d
b10101000 k
b10101000 ,"
b10100100 M
b10100100 l
b10100100 !"
b10100100 ."
b10100100 1"
1!
#840
0!
#850
b10101100 I
b10101100 /"
b10101100 0"
b10101100 J
b10101100 d
b10101100 k
b10101100 ,"
b10101000 M
b10101000 l
b10101000 !"
b10101000 ."
b10101000 1"
b10101000 L
b10101000 Z
b10101000 e
b10100100 K
b10100100 _
b10100100 m
1!
#860
0!
#870
b10110000 I
b10110000 /"
b10110000 0"
b10101000 K
b10101000 _
b10101000 m
b10101100 L
b10101100 Z
b10101100 e
b10110000 J
b10110000 d
b10110000 k
b10110000 ,"
b10101100 M
b10101100 l
b10101100 !"
b10101100 ."
b10101100 1"
1!
#880
0!
#890
b10110100 I
b10110100 /"
b10110100 0"
b10110100 J
b10110100 d
b10110100 k
b10110100 ,"
b10110000 M
b10110000 l
b10110000 !"
b10110000 ."
b10110000 1"
b10110000 L
b10110000 Z
b10110000 e
b10101100 K
b10101100 _
b10101100 m
1!
#900
0!
#910
b10111000 I
b10111000 /"
b10111000 0"
b10110000 K
b10110000 _
b10110000 m
b10110100 L
b10110100 Z
b10110100 e
b10111000 J
b10111000 d
b10111000 k
b10111000 ,"
b10110100 M
b10110100 l
b10110100 !"
b10110100 ."
b10110100 1"
1!
#920
0!
#930
b10111100 I
b10111100 /"
b10111100 0"
b10111100 J
b10111100 d
b10111100 k
b10111100 ,"
b10111000 M
b10111000 l
b10111000 !"
b10111000 ."
b10111000 1"
b10111000 L
b10111000 Z
b10111000 e
b10110100 K
b10110100 _
b10110100 m
1!
#940
0!
#950
b11000000 I
b11000000 /"
b11000000 0"
b10111000 K
b10111000 _
b10111000 m
b10111100 L
b10111100 Z
b10111100 e
b11000000 J
b11000000 d
b11000000 k
b11000000 ,"
b10111100 M
b10111100 l
b10111100 !"
b10111100 ."
b10111100 1"
1!
#960
0!
#970
b11000100 I
b11000100 /"
b11000100 0"
b11000100 J
b11000100 d
b11000100 k
b11000100 ,"
b11000000 M
b11000000 l
b11000000 !"
b11000000 ."
b11000000 1"
b11000000 L
b11000000 Z
b11000000 e
b10111100 K
b10111100 _
b10111100 m
1!
#980
0!
#990
b11001000 I
b11001000 /"
b11001000 0"
b11000000 K
b11000000 _
b11000000 m
b11000100 L
b11000100 Z
b11000100 e
b11001000 J
b11001000 d
b11001000 k
b11001000 ,"
b11000100 M
b11000100 l
b11000100 !"
b11000100 ."
b11000100 1"
1!
#1000
0!
#1010
b11001100 I
b11001100 /"
b11001100 0"
b11001100 J
b11001100 d
b11001100 k
b11001100 ,"
b11001000 M
b11001000 l
b11001000 !"
b11001000 ."
b11001000 1"
b11001000 L
b11001000 Z
b11001000 e
b11000100 K
b11000100 _
b11000100 m
1!
#1020
0!
#1030
b11010000 I
b11010000 /"
b11010000 0"
b11001000 K
b11001000 _
b11001000 m
b11001100 L
b11001100 Z
b11001100 e
b11010000 J
b11010000 d
b11010000 k
b11010000 ,"
b11001100 M
b11001100 l
b11001100 !"
b11001100 ."
b11001100 1"
1!
#1040
0!
#1050
b11010100 I
b11010100 /"
b11010100 0"
b11010100 J
b11010100 d
b11010100 k
b11010100 ,"
b11010000 M
b11010000 l
b11010000 !"
b11010000 ."
b11010000 1"
b11010000 L
b11010000 Z
b11010000 e
b11001100 K
b11001100 _
b11001100 m
1!
#1060
0!
#1070
b11011000 I
b11011000 /"
b11011000 0"
b11010000 K
b11010000 _
b11010000 m
b11010100 L
b11010100 Z
b11010100 e
b11011000 J
b11011000 d
b11011000 k
b11011000 ,"
b11010100 M
b11010100 l
b11010100 !"
b11010100 ."
b11010100 1"
1!
#1080
0!
#1090
b11011100 I
b11011100 /"
b11011100 0"
b11011100 J
b11011100 d
b11011100 k
b11011100 ,"
b11011000 M
b11011000 l
b11011000 !"
b11011000 ."
b11011000 1"
b11011000 L
b11011000 Z
b11011000 e
b11010100 K
b11010100 _
b11010100 m
1!
#1100
0!
